<?xml version="1.0" encoding="UTF-8"?>
<session version="1.0">
<refactoring accessors="true" comment="Delete element from project &apos;application&apos;&#x0D;&#x0A;- Original project: &apos;application&apos;&#x0D;&#x0A;- Original element: &apos;MainV.fxml&apos;" description="Delete element" element1="src/controllers/MainV.fxml" elements="0" flags="589830" id="org.eclipse.jdt.ui.delete" resources="1" stamp="1542139937490" subPackages="false" version="1.0"/>
</session>